[
{
	"name": "ls",
	"cmd": "ls -lR /",
	"numprocs": 1,
	"umask": "022",
	"workingdir": "/tmp",
	"autostart": true,
	"autorestart": "unexpected",
	"exitcodes": [0, 2],
	"startretries": 3,
	"starttime": 1,
	"stopsignal": "TERM",
	"stoptime": 10,
	"stdout": "/tmp/.job01.stdout",
	"stderr": "/tmp/.job01.stderr"
}
]
