[
{
	"name": "sigintIgnore",
	"cmd": "/tmp/sigintIgnore",
	"numprocs": 1,
	"umask": "022",
	"workingdir": "/tmp",
	"autostart": true,
	"autorestart": "unexpected",
	"startretries": -42,
	"stopsignal": "INT",
	"stdout": "/tmp/.job02.stdout",
	"stderr": "/tmp/.job02.stderr",
	"env": ["STARTED_BY=taskmaster", "ANSWER=42"]
}
]
